…
print(crop_means)
```

```
## # A tibble: 22 × 8
##    Crop        Mean_Nitrogen Mean_Phosphorus Mean_Potassium Mean_Temperature
##    <fct>               <dbl>           <dbl>          <dbl>            <dbl>
##  1 Apple                20.8           134.           200.              22.6
##  2 Banana              100.             82.0           50.0             27.4
##  3 Blackgram            40.0            67.5           19.2             30.0
##  4 ChickPea             40.1            67.8           79.9             18.9
##  5 Coconut              22.0            16.9           30.6             27.4
##  6 Coffee              101.             28.7           29.9             25.5
##  7 Cotton              118.             46.2           19.6             24.0
##  8 Grapes               23.2           133.           200.              23.8
##  9 Jute                 78.4            46.9           40.0             25.0
## 10 KidneyBeans          20.8            67.5           20.0             20.1
## # ℹ 12 more rows
## # ℹ 3 more variables: Mean_Humidity <dbl>, Mean_pH <dbl>, Mean_Rainfall <dbl>
```
…
